{"AUD":1.5039}
{"BGN":1.9558}
{"BRL":3.7093}
{"CAD":1.4692}
{"CHF":1.1449}
{"CNY":7.8073}
{"CZK":25.932}
{"DKK":7.4424}
{"GBP":0.88793}
{"HKD":9.1809}
{"HRK":7.4975}
{"HUF":312.05}
{"IDR":15916}
{"ILS":4.1519}
{"INR":76.987}
{"JPY":132.77}
{"KRW":1344.9}
{"MXN":21.469}
{"MYR":4.9766}
{"NOK":9.3885}
{"NZD":1.6374}
{"PHP":60.117}
{"PLN":4.3102}
{"RON":4.591}
{"RUB":68.164}
{"SEK":9.5675}
{"SGD":1.6016}
{"THB":39.279}
{"TRY":4.2117}
{"USD":1.1753}
{"ZAR":16.12}
